[
  {
    "id": 1,
    "name": "version",
    "value": "0.1-dev",
    "description": "App version, serves to keep a control of the current running instance"
  },
  {
    "id": 2,
    "name": "commit",
    "value": "57337e4",
    "description": "development"
  },
  {
    "id": 3,
    "name": "main_url",
    "value": "/",
    "description": "Main app's url, usually is /."
  },
  {
    "id": 4,
    "name": "route_blacklist",
    "value": "home:policy:terms:help",
    "description": "Routes to be removed form the navbar"
  },
  {
    "id": 5,
    "name": "footer_routes",
    "value": "home:policy:terms:help",
    "description": "Routes to be displayed in the footer"
  },
  {
    "id": 6,
    "name": "app_name",
    "value": "José Candelo",
    "description": "App's name"
  }
]